"10007427721.0","5007414699.0","0101","F00N.200.762","HOLLOW BOLT","97010692","SAROJ ENGINEERS","100.0","0073726600","Manual","86400.0","3 days","43210.0","0.640520833333333","4991",""
"10007427724","5007414701.0","0101","F00N.201.319","HOLLOW BOLT;","97010692","SAROJ ENGINEERS","150.0","0073726710","Automatic","18000.0","5 days","43210.0","0.641840277777778","4991","65B0"
"10007400352","5007393619.0","0101","F002.FR0.005","ROLLER TAPPET","97007542","P R KEDARNATH MULTI COMPONENTS","300.0","0073726720","Automatic","86400.0","5 days","43200.0","0.6925","4991","65B0"
"10007419833","5007407512.0","0101","F002.F71.071","ROLLER-TAPPET BODY","97006441","CNC AUTOMOTIVE","125.0","0073726730","Automatic","10800.0","7 days","43207.0","0.610625","4991","65B0"
"10007419827","5007407508.0","0101","F002.F71.072","ROLLER-TAPPET BODY","97006441","CNC AUTOMOTIVE","125.0","0073726735","Manual","86400.0","8 days","43207.0","0.608599537037037","4991","65B0"
"10007419830","5007407510.0","0101","F002.FR1.023","ROLLER-TAPPET BODY","97006441","CNC AUTOMOTIVE","125.0","0073726740","Automatic","21600.0","2 days","43207.0","0.609814814814815","4991","65B0"
"10007419714","5007407393.0","0101","F00R.F00.018","BLOCK; FINAL MACHINING;FDB;CR/V2/10-2S","97006441","CNC AUTOMOTIVE","125.0","0073726507","Manual","86400.0","1 days","43207.0","0.58150462962963","4991","65B0"
"10008427721.0","5008414699","0102","F00N.300.800","HOLLOW BOLT_12","97010692","SAROJ ENGINEERS","200.0","0083726579","Automatic","10800.0","6 days","43210.0","0.640520833333333","4991","65B0"
"10008427724.0","5008414701","0102","F00N.300.700","HOLLOW BOLT_13","97010692","SAROJ ENGINEERS","150.0","0083726580","Manual","14400.0","6 days","43210.0","0.641840277777778","4991","65B0"
"10008400352.0","5008393619","0102","F002.FR0.100","ROLLER TAPPET_14","97007542","P R KEDARNATH MULTI COMPONENTS","300.0","0083726582","Manual","21600.0","5 days","43200.0","0.6925","4991","65B0"
"10008419833.0","5008407512","0102","F002.F71.200","ROLLER-TAPPET BODY_15","97006441","CNC AUTOMOTIVE","125.0","008372684","Automatic","14400.0","4 days","43207.0","0.610625","4991","65B0"
"10008419827.0","5008407508","0102","F002.F72.300","ROLLER-TAPPET BODY_16","97006441","CNC AUTOMOTIVE","125.0","0083726585","Automatic","86400.0","3 days","43207.0","0.608599537037037","4991","65B0"
"10008419830.0","5008407510","0102","F002.FR1.400","ROLLER-TAPPET BODY_17","97006441","CNC AUTOMOTIVE","125.0","008372686","Manual","21600.0","5 days","43207.0","0.609814814814815","4991","65B0"
"10008419714.0","5008407393","0102","F00R.F00.500","BLOCK; FINAL MACHINING;FDB;CR/V2/10-2S_18","97006441","CNC AUTOMOTIVE","125.0","0083726587","Automatic","25200.0","6 days","43207.0","0.58150462962963","4991","65B0"
"10009427721.0","5009414699.0","0103","F00N.226.350","HOLLOW BOLT_22","97010692","SAROJ ENGINEERS","100.0","0093726590","Automatic","86400.0","3 days","43210.0","0.640520833333333","4991","65B0"
"10009427724.0","5009414701.0","0103","F00N.301.450","HOLLOW BOLT_23","97010692","SAROJ ENGINEERS","150.0","0093726617","Manual","14400.0","7 days","43210.0","0.641840277777778","4991","65B0"
"10009400352.0","5009393619.0","0103","F002.FR1.550","ROLLER TAPPET_24","97007542","P R KEDARNATH MULTI COMPONENTS","300.0","0093726510","Manual","25200.0","3 days","43200.0","0.6925","4991","65B0"
"10009419833.0","5009407512.0","0103","F002.F71.650","ROLLER-TAPPET BODY_25","97006441","CNC AUTOMOTIVE","125.0","0093726520","Manual","21600.0","1 day","43207.0","0.610625","4991","65B0"
"10009419827.0","5009407508.0","0103","F002.F71.750","ROLLER-TAPPET BODY_26","97006441","CNC AUTOMOTIVE","125.0","0093726521","Automatic","86400.0","2 day","43207.0","0.608599537037037","4991","65B0"
"10009419830.0","5009407510.0","0103","F002.FR1.850","ROLLER-TAPPET BODY_27","97006441","CNC AUTOMOTIVE","125.0","0093726522","Manual","18000.0","6 days","43207.0","0.609814814814815","4991","65B0"
"10009419714.0","5009407393.0","0103","F00R.F00.950","BLOCK; FINAL MACHINING;FDB;CR/V2/10-2S_28","97006441","CNC AUTOMOTIVE","125.0","0093726528","Automatic","10800.0","1 day","43207.0","0.58150462962963","4991","65B0"
